{
	"centers": [
	  {
		"center_id": 171711,
		"name": "Puthenthope CHC",
		"state_name": "Kerala",
		"district_name": "Thiruvananthapuram",
		"block_name": "Puthenthope",
		"pincode": 695586,
		"lat": 8,
		"long": 76,
		"from": "09:00:00",
		"to": "17:00:00",
		"fee_type": "Free",
		"sessions": [
		  {
			"session_id": "612cc530-210b-416a-bced-1aa77d210ba9",
			"date": "29-04-2021",
			"available_capacity": 2,
			"min_age_limit": 45,
			"vaccine": "",
			"slots": [
			  "09:00AM-11:00AM",
			  "11:00AM-01:00PM",
			  "01:00PM-03:00PM",
			  "03:00PM-05:00PM"
			]
		  }
		]
	  },
	  {
		"center_id": 597487,
		"name": "Jimmy George Indoor Stadium E",
		"state_name": "Kerala",
		"district_name": "Thiruvananthapuram",
		"block_name": "Thiruvananthapuram",
		"pincode": 695014,
		"lat": 8,
		"long": 76,
		"from": "10:00:00",
		"to": "15:00:00",
		"fee_type": "Free",
		"sessions": [
		  {
			"session_id": "52b0275d-b055-423f-9e38-f9dea8543901",
			"date": "29-04-2021",
			"available_capacity": 2,
			"min_age_limit": 45,
			"vaccine": "",
			"slots": [
			  "10:00AM-11:00AM",
			  "11:00AM-12:00PM",
			  "12:00PM-01:00PM",
			  "01:00PM-03:00PM"
			]
		  }
		]
	  },
	  {
		"center_id": 175440,
		"name": "Peroorkada DMH",
		"state_name": "Kerala",
		"district_name": "Thiruvananthapuram",
		"block_name": "Poonthura",
		"pincode": 695005,
		"lat": 8,
		"long": 76,
		"from": "09:00:00",
		"to": "17:00:00",
		"fee_type": "Free",
		"sessions": [
		  {
			"session_id": "263ed4a1-50f5-43d1-b9b8-d9e05b253f2d",
			"date": "29-04-2021",
			"available_capacity": 1,
			"min_age_limit": 45,
			"vaccine": "",
			"slots": [
			  "09:00AM-11:00AM",
			  "11:00AM-01:00PM",
			  "01:00PM-03:00PM",
			  "03:00PM-05:00PM"
			]
		  }
		]
	  },
	  {
		"center_id": 157393,
		"name": "Adayamon PHC",
		"state_name": "Kerala",
		"district_name": "Thiruvananthapuram",
		"block_name": "Kesavapuram",
		"pincode": 695614,
		"lat": 8,
		"long": 76,
		"from": "09:00:00",
		"to": "16:00:00",
		"fee_type": "Free",
		"sessions": [
		  {
			"session_id": "2e36d707-14ae-415b-a2e7-542616f7a6b4",
			"date": "29-04-2021",
			"available_capacity": 1,
			"min_age_limit": 45,
			"vaccine": "",
			"slots": [
			  "09:00AM-11:00AM",
			  "11:00AM-01:00PM",
			  "01:00PM-03:00PM",
			  "03:00PM-04:00PM"
			]
		  }
		]
	  },
	  {
		"center_id": 171827,
		"name": "Vamanapuram PHC",
		"state_name": "Kerala",
		"district_name": "Thiruvananthapuram",
		"block_name": "Vamanapuram",
		"pincode": 695606,
		"lat": 8,
		"long": 76,
		"from": "09:00:00",
		"to": "17:00:00",
		"fee_type": "Free",
		"sessions": [
		  {
			"session_id": "a7b5976b-d735-48fe-abca-baf521edc750",
			"date": "29-04-2021",
			"available_capacity": 2,
			"min_age_limit": 45,
			"vaccine": "",
			"slots": [
			  "09:00AM-11:00AM",
			  "11:00AM-01:00PM",
			  "01:00PM-03:00PM",
			  "03:00PM-05:00PM"
			]
		  }
		]
	  },
	  {
		"center_id": 158731,
		"name": "Kesavapuram CHC",
		"state_name": "Kerala",
		"district_name": "Thiruvananthapuram",
		"block_name": "Kesavapuram",
		"pincode": 695601,
		"lat": 8,
		"long": 76,
		"from": "09:00:00",
		"to": "17:00:00",
		"fee_type": "Free",
		"sessions": [
		  {
			"session_id": "37ec5fcd-5e86-4be5-949e-049f1051d07c",
			"date": "29-04-2021",
			"available_capacity": 2,
			"min_age_limit": 45,
			"vaccine": "",
			"slots": [
			  "09:00AM-11:00AM",
			  "11:00AM-01:00PM",
			  "01:00PM-03:00PM",
			  "03:00PM-05:00PM"
			]
		  }
		]
	  },
	  {
		"center_id": 579969,
		"name": "CDH Pulayanarkotah",
		"state_name": "Kerala",
		"district_name": "Thiruvananthapuram",
		"block_name": "Puthenthope",
		"pincode": 695023,
		"lat": 0,
		"long": 0,
		"from": "09:00:00",
		"to": "17:00:00",
		"fee_type": "Free",
		"sessions": [
		  {
			"session_id": "4d634948-c866-4cfa-8a5e-26176a9b0aa1",
			"date": "29-04-2021",
			"available_capacity": 3,
			"min_age_limit": 45,
			"vaccine": "",
			"slots": [
			  "09:00AM-11:00AM",
			  "11:00AM-01:00PM",
			  "01:00PM-03:00PM",
			  "03:00PM-05:00PM"
			]
		  }
		]
	  },
	  {
		"center_id": 171419,
		"name": "Maranalloor PHC",
		"state_name": "Kerala",
		"district_name": "Thiruvananthapuram",
		"block_name": "Vilappil",
		"pincode": 695512,
		"lat": 8,
		"long": 77,
		"from": "09:00:00",
		"to": "16:00:00",
		"fee_type": "Free",
		"sessions": [
		  {
			"session_id": "8d51eb2b-6530-4cf1-aac4-199dc98ca558",
			"date": "29-04-2021",
			"available_capacity": 3,
			"min_age_limit": 45,
			"vaccine": "",
			"slots": [
			  "09:00AM-11:00AM",
			  "11:00AM-01:00PM",
			  "01:00PM-03:00PM",
			  "03:00PM-04:00PM"
			]
		  }
		]
	  },
	  {
		"center_id": 614554,
		"name": "Vellarada CHC",
		"state_name": "Kerala",
		"district_name": "Thiruvananthapuram",
		"block_name": "Vellarada",
		"pincode": 695505,
		"lat": 8,
		"long": 77,
		"from": "09:00:00",
		"to": "17:00:00",
		"fee_type": "Free",
		"sessions": [
		  {
			"session_id": "2470a067-3019-4d82-bfb9-939155ad5526",
			"date": "29-04-2021",
			"available_capacity": 1,
			"min_age_limit": 45,
			"vaccine": "",
			"slots": [
			  "09:00AM-11:00AM",
			  "11:00AM-01:00PM",
			  "01:00PM-03:00PM",
			  "03:00PM-05:00PM"
			]
		  }
		]
	  },
	  {
		"center_id": 171345,
		"name": "Kulathoor PHC",
		"state_name": "Kerala",
		"district_name": "Thiruvananthapuram",
		"block_name": "Poovar",
		"pincode": 695506,
		"lat": 8,
		"long": 77,
		"from": "09:00:00",
		"to": "16:00:00",
		"fee_type": "Free",
		"sessions": [
		  {
			"session_id": "5ec30bbc-bfac-4590-bee1-34afc26fc0fd",
			"date": "29-04-2021",
			"available_capacity": 1,
			"min_age_limit": 45,
			"vaccine": "",
			"slots": [
			  "09:00AM-11:00AM",
			  "11:00AM-01:00PM",
			  "01:00PM-03:00PM",
			  "03:00PM-04:00PM"
			]
		  }
		]
	  },
	  {
		"center_id": 157500,
		"name": "Amboori PHC",
		"state_name": "Kerala",
		"district_name": "Thiruvananthapuram",
		"block_name": "Vellarada",
		"pincode": 695505,
		"lat": 8,
		"long": 77,
		"from": "09:00:00",
		"to": "16:00:00",
		"fee_type": "Free",
		"sessions": [
		  {
			"session_id": "4b1f110b-32c7-49ea-89a3-88e467701ae5",
			"date": "29-04-2021",
			"available_capacity": 1,
			"min_age_limit": 45,
			"vaccine": "",
			"slots": [
			  "09:00AM-11:00AM",
			  "11:00AM-01:00PM",
			  "01:00PM-03:00PM",
			  "03:00PM-04:00PM"
			]
		  }
		]
	  },
	  {
		"center_id": 586212,
		"name": "S P Multi Hospital Parasala",
		"state_name": "Kerala",
		"district_name": "Thiruvananthapuram",
		"block_name": "Poovar",
		"pincode": 695502,
		"lat": 8,
		"long": 77,
		"from": "09:00:00",
		"to": "18:00:00",
		"fee_type": "Paid",
		"sessions": [
		  {
			"session_id": "a2536996-6360-4220-9a0f-219e944c30f1",
			"date": "29-04-2021",
			"available_capacity": 100,
			"min_age_limit": 45,
			"vaccine": "COVISHIELD",
			"slots": [
			  "09:00AM-11:00AM",
			  "11:00AM-01:00PM",
			  "01:00PM-03:00PM",
			  "03:00PM-06:00PM"
			]
		  }
		],
		"vaccine_fees": [
		  {
			"vaccine": "COVISHIELD",
			"fee": "250"
		  }
		]
	  },
	  {
		"center_id": 171676,
		"name": "Pulimath PHC",
		"state_name": "Kerala",
		"district_name": "Thiruvananthapuram",
		"block_name": "Kesavapuram",
		"pincode": 695608,
		"lat": 8,
		"long": 76,
		"from": "09:00:00",
		"to": "16:00:00",
		"fee_type": "Free",
		"sessions": [
		  {
			"session_id": "bb06a83f-70de-48b6-bcab-e68c8ac31d47",
			"date": "29-04-2021",
			"available_capacity": 1,
			"min_age_limit": 45,
			"vaccine": "",
			"slots": [
			  "09:00AM-11:00AM",
			  "11:00AM-01:00PM",
			  "01:00PM-03:00PM",
			  "03:00PM-04:00PM"
			]
		  }
		]
	  },
	  {
		"center_id": 623569,
		"name": "V R Hospital Diabetes Center",
		"state_name": "Kerala",
		"district_name": "Thiruvananthapuram",
		"block_name": "Manamboor",
		"pincode": 695142,
		"lat": 8,
		"long": 76,
		"from": "09:00:00",
		"to": "18:00:00",
		"fee_type": "Paid",
		"sessions": [
		  {
			"session_id": "3b9b21f4-41dc-41cf-a5c6-220e4e0d1bee",
			"date": "29-04-2021",
			"available_capacity": 39,
			"min_age_limit": 45,
			"vaccine": "COVISHIELD",
			"slots": [
			  "09:00AM-11:00AM",
			  "11:00AM-01:00PM",
			  "01:00PM-03:00PM",
			  "03:00PM-06:00PM"
			]
		  }
		],
		"vaccine_fees": [
		  {
			"vaccine": "COVISHIELD",
			"fee": "0"
		  }
		]
	  },
	  {
		"center_id": 171463,
		"name": "Navaikulam PHC",
		"state_name": "Kerala",
		"district_name": "Thiruvananthapuram",
		"block_name": "Kesavapuram",
		"pincode": 695603,
		"lat": 8,
		"long": 76,
		"from": "09:00:00",
		"to": "16:00:00",
		"fee_type": "Free",
		"sessions": [
		  {
			"session_id": "53e162b8-46b7-43e7-b631-da01cf4cb82f",
			"date": "29-04-2021",
			"available_capacity": 88,
			"min_age_limit": 45,
			"vaccine": "",
			"slots": [
			  "09:00AM-11:00AM",
			  "11:00AM-01:00PM",
			  "01:00PM-03:00PM",
			  "03:00PM-04:00PM"
			]
		  }
		]
	  },
	  {
		"center_id": 597486,
		"name": "Jimmy George Indoor Stadium D",
		"state_name": "Kerala",
		"district_name": "Thiruvananthapuram",
		"block_name": "Thiruvananthapuram",
		"pincode": 695014,
		"lat": 0,
		"long": 0,
		"from": "10:00:00",
		"to": "15:00:00",
		"fee_type": "Free",
		"sessions": [
		  {
			"session_id": "2fa9f2c0-9e76-42fe-b826-a6d3d7d75523",
			"date": "29-04-2021",
			"available_capacity": 1,
			"min_age_limit": 45,
			"vaccine": "",
			"slots": [
			  "10:00AM-11:00AM",
			  "11:00AM-12:00PM",
			  "12:00PM-01:00PM",
			  "01:00PM-03:00PM"
			]
		  }
		]
	  },
	  {
		"center_id": 158815,
		"name": "Kottukal PHC",
		"state_name": "Kerala",
		"district_name": "Thiruvananthapuram",
		"block_name": "Venpakal",
		"pincode": 695501,
		"lat": 8,
		"long": 77,
		"from": "09:00:00",
		"to": "16:00:00",
		"fee_type": "Free",
		"sessions": [
		  {
			"session_id": "f70d1d08-0e39-4a45-80a4-096de628049b",
			"date": "29-04-2021",
			"available_capacity": 1,
			"min_age_limit": 45,
			"vaccine": "",
			"slots": [
			  "09:00AM-11:00AM",
			  "11:00AM-01:00PM",
			  "01:00PM-03:00PM",
			  "03:00PM-04:00PM"
			]
		  }
		]
	  },
	  {
		"center_id": 198679,
		"name": "Parassuvaikkal PHC",
		"state_name": "Kerala",
		"district_name": "Thiruvananthapuram",
		"block_name": "Poovar",
		"pincode": 695508,
		"lat": 8,
		"long": 77,
		"from": "09:00:00",
		"to": "16:00:00",
		"fee_type": "Free",
		"sessions": [
		  {
			"session_id": "cbc820d3-091f-4a4c-8d94-1d836e0f6072",
			"date": "29-04-2021",
			"available_capacity": 1,
			"min_age_limit": 45,
			"vaccine": "",
			"slots": [
			  "09:00AM-11:00AM",
			  "11:00AM-01:00PM",
			  "01:00PM-03:00PM",
			  "03:00PM-04:00PM"
			]
		  }
		]
	  },
	  {
		"center_id": 685744,
		"name": "Amachal PHC (COVISHIELD)",
		"state_name": "Kerala",
		"district_name": "Thiruvananthapuram",
		"block_name": "Vellanad",
		"pincode": 695572,
		"lat": 8,
		"long": 77,
		"from": "09:00:00",
		"to": "16:00:00",
		"fee_type": "Free",
		"sessions": [
		  {
			"session_id": "ea42e677-dc43-4397-a898-e8f1de6f3690",
			"date": "29-04-2021",
			"available_capacity": 2,
			"min_age_limit": 45,
			"vaccine": "",
			"slots": [
			  "09:00AM-11:00AM",
			  "11:00AM-01:00PM",
			  "01:00PM-03:00PM",
			  "03:00PM-04:00PM"
			]
		  }
		]
	  },
	  {
		"center_id": 620823,
		"name": "Jothydevs Diabetes Center",
		"state_name": "Kerala",
		"district_name": "Thiruvananthapuram",
		"block_name": "Thiruvananthapuram",
		"pincode": 695032,
		"lat": 8,
		"long": 76,
		"from": "11:00:00",
		"to": "15:00:00",
		"fee_type": "Paid",
		"sessions": [
		  {
			"session_id": "aadc4728-360e-42da-b3e6-e80ec391c987",
			"date": "29-04-2021",
			"available_capacity": 2,
			"min_age_limit": 45,
			"vaccine": "COVISHIELD",
			"slots": [
			  "11:00AM-12:00PM",
			  "12:00PM-01:00PM",
			  "01:00PM-02:00PM",
			  "02:00PM-03:00PM"
			]
		  }
		],
		"vaccine_fees": [
		  {
			"vaccine": "COVISHIELD",
			"fee": "250"
		  }
		]
	  },
	  {
		"center_id": 157758,
		"name": "Andoorkonam CHC",
		"state_name": "Kerala",
		"district_name": "Thiruvananthapuram",
		"block_name": "Puthenthope",
		"pincode": 695584,
		"lat": 8,
		"long": 76,
		"from": "09:00:00",
		"to": "17:00:00",
		"fee_type": "Free",
		"sessions": [
		  {
			"session_id": "ab3e77da-0286-4969-a331-8b6d12522212",
			"date": "29-04-2021",
			"available_capacity": 1,
			"min_age_limit": 45,
			"vaccine": "",
			"slots": [
			  "09:00AM-11:00AM",
			  "11:00AM-01:00PM",
			  "01:00PM-03:00PM",
			  "03:00PM-05:00PM"
			]
		  }
		]
	  },
	  {
		"center_id": 158736,
		"name": "Kilimanoor PHC",
		"state_name": "Kerala",
		"district_name": "Thiruvananthapuram",
		"block_name": "Kesavapuram",
		"pincode": 695614,
		"lat": 8,
		"long": 76,
		"from": "09:00:00",
		"to": "16:00:00",
		"fee_type": "Free",
		"sessions": [
		  {
			"session_id": "03aba894-1f69-4cce-8f97-879860c96ab5",
			"date": "29-04-2021",
			"available_capacity": 1,
			"min_age_limit": 45,
			"vaccine": "",
			"slots": [
			  "09:00AM-11:00AM",
			  "11:00AM-01:00PM",
			  "01:00PM-03:00PM",
			  "03:00PM-04:00PM"
			]
		  }
		]
	  },
	  {
		"center_id": 665686,
		"name": "Community Hall Kuriyathy",
		"state_name": "Kerala",
		"district_name": "Thiruvananthapuram",
		"block_name": "Thiruvananthapuram",
		"pincode": 695036,
		"lat": 8,
		"long": 76,
		"from": "09:00:00",
		"to": "16:00:00",
		"fee_type": "Free",
		"sessions": [
		  {
			"session_id": "406fcc2e-abcc-49ea-a5fd-e4d092b5b791",
			"date": "29-04-2021",
			"available_capacity": 2,
			"min_age_limit": 45,
			"vaccine": "",
			"slots": [
			  "09:00AM-11:00AM",
			  "11:00AM-01:00PM",
			  "01:00PM-03:00PM",
			  "03:00PM-04:00PM"
			]
		  }
		]
	  }
	]
  }